^C:\USERS\2015110705\DOCUMENTS\VISUAL STUDIO 2010\PROJECTS\DS05\5\DEBUG\MAIN.OBJ
C:\USERS\2015110705\DOCUMENTS\VISUAL STUDIO 2010\PROJECTS\DS05\DEBUG\5.ILK
C:\USERS\2015110705\DOCUMENTS\VISUAL STUDIO 2010\PROJECTS\DS05\DEBUG\5.EXE
C:\USERS\2015110705\DOCUMENTS\VISUAL STUDIO 2010\PROJECTS\DS05\5\DEBUG\5.EXE.INTERMEDIATE.MANIFEST
C:\USERS\2015110705\DOCUMENTS\VISUAL STUDIO 2010\PROJECTS\DS05\DEBUG\5.PDB
